2019/08/14 02:38:20 [emerg] 1#1: host not found in upstream "artifactory" in /etc/nginx/conf.d/artifactory.conf:31
2019/08/14 02:38:22 [emerg] 1#1: host not found in upstream "artifactory" in /etc/nginx/conf.d/artifactory.conf:31
2019/08/14 02:38:24 [emerg] 1#1: host not found in upstream "artifactory" in /etc/nginx/conf.d/artifactory.conf:31
2019/08/14 02:38:26 [emerg] 1#1: host not found in upstream "artifactory" in /etc/nginx/conf.d/artifactory.conf:31
2019/08/14 02:38:28 [emerg] 1#1: host not found in upstream "artifactory" in /etc/nginx/conf.d/artifactory.conf:31
2019/08/14 02:38:31 [emerg] 1#1: host not found in upstream "artifactory" in /etc/nginx/conf.d/artifactory.conf:31
2019/08/14 02:38:36 [emerg] 1#1: host not found in upstream "artifactory" in /etc/nginx/conf.d/artifactory.conf:31
2019/08/14 02:38:44 [emerg] 1#1: host not found in upstream "artifactory" in /etc/nginx/conf.d/artifactory.conf:31
2019/08/14 02:38:58 [emerg] 1#1: host not found in upstream "artifactory" in /etc/nginx/conf.d/artifactory.conf:31
2019/08/14 02:39:25 [emerg] 1#1: host not found in upstream "artifactory" in /etc/nginx/conf.d/artifactory.conf:31
2019/08/14 02:40:17 [emerg] 1#1: host not found in upstream "artifactory" in /etc/nginx/conf.d/artifactory.conf:31
2019/08/14 02:41:18 [emerg] 1#1: host not found in upstream "artifactory" in /etc/nginx/conf.d/artifactory.conf:31
2019/08/14 02:42:11 [emerg] 1#1: host not found in upstream "artifactory" in /etc/nginx/conf.d/artifactory.conf:31
2019/08/14 02:42:13 [emerg] 1#1: host not found in upstream "artifactory" in /etc/nginx/conf.d/artifactory.conf:31
2019/08/14 02:42:15 [emerg] 1#1: host not found in upstream "artifactory" in /etc/nginx/conf.d/artifactory.conf:31
2019/08/14 02:42:16 [emerg] 1#1: host not found in upstream "artifactory" in /etc/nginx/conf.d/artifactory.conf:31
2019/08/14 02:42:19 [emerg] 1#1: host not found in upstream "artifactory" in /etc/nginx/conf.d/artifactory.conf:31
2019/08/14 02:42:22 [emerg] 1#1: host not found in upstream "artifactory" in /etc/nginx/conf.d/artifactory.conf:31
2019/08/14 02:42:26 [emerg] 1#1: host not found in upstream "artifactory" in /etc/nginx/conf.d/artifactory.conf:31
2019/08/14 02:42:34 [emerg] 1#1: host not found in upstream "artifactory" in /etc/nginx/conf.d/artifactory.conf:31
2019/08/14 02:42:48 [emerg] 1#1: host not found in upstream "artifactory" in /etc/nginx/conf.d/artifactory.conf:31
2019/08/14 02:43:15 [emerg] 1#1: host not found in upstream "artifactory" in /etc/nginx/conf.d/artifactory.conf:31
2019/08/14 02:44:07 [emerg] 1#1: host not found in upstream "artifactory" in /etc/nginx/conf.d/artifactory.conf:31
2019/08/14 02:45:09 [emerg] 1#1: host not found in upstream "artifactory" in /etc/nginx/conf.d/artifactory.conf:31
2019/08/14 02:46:01 [emerg] 1#1: BIO_new_file("/etc/nginx/ssl/example.pem") failed (SSL: error:02001002:system library:fopen:No such file or directory:fopen('/etc/nginx/ssl/example.pem','r') error:2006D080:BIO routines:BIO_new_file:no such file)
2019/08/14 02:46:04 [emerg] 1#1: host not found in upstream "artifactory-node1:8081" in /etc/nginx/conf.d/artifactory.conf:3
2019/08/14 02:46:06 [emerg] 1#1: BIO_new_file("/etc/nginx/ssl/example.pem") failed (SSL: error:02001002:system library:fopen:No such file or directory:fopen('/etc/nginx/ssl/example.pem','r') error:2006D080:BIO routines:BIO_new_file:no such file)
2019/08/14 02:46:08 [emerg] 1#1: host not found in upstream "artifactory-node2:8081" in /etc/nginx/conf.d/artifactory.conf:4
2019/08/14 02:46:11 [emerg] 1#1: host not found in upstream "artifactory-node1:8081" in /etc/nginx/conf.d/artifactory.conf:3
2019/08/14 02:46:15 [emerg] 1#1: host not found in upstream "artifactory-node1:8081" in /etc/nginx/conf.d/artifactory.conf:3
2019/08/14 02:46:20 [emerg] 1#1: host not found in upstream "artifactory-node1:8081" in /etc/nginx/conf.d/artifactory.conf:3
2019/08/14 02:46:27 [emerg] 1#1: host not found in upstream "artifactory-node1:8081" in /etc/nginx/conf.d/artifactory.conf:3
2019/08/14 02:46:42 [emerg] 1#1: host not found in upstream "artifactory-node1:8081" in /etc/nginx/conf.d/artifactory.conf:3
2019/08/14 02:47:09 [emerg] 1#1: host not found in upstream "artifactory" in /etc/nginx/conf.d/artifactory.conf:31
2019/08/14 02:48:01 [emerg] 1#1: host not found in upstream "artifactory-node1:8081" in /etc/nginx/conf.d/artifactory.conf:3
2019/08/14 02:49:02 [emerg] 1#1: host not found in upstream "artifactory" in /etc/nginx/conf.d/artifactory.conf:31
2019/08/14 02:50:04 [emerg] 1#1: host not found in upstream "artifactory-node1:8081" in /etc/nginx/conf.d/artifactory.conf:3
2019/08/14 02:51:05 [emerg] 1#1: host not found in upstream "artifactory-node1:8081" in /etc/nginx/conf.d/artifactory.conf:3
2019/08/14 02:52:25 [emerg] 1#1: host not found in upstream "artifactory-node1:8081" in /etc/nginx/conf.d/artifactory.conf:3
2019/08/14 02:52:27 [emerg] 1#1: host not found in upstream "artifactory-node1:8081" in /etc/nginx/conf.d/artifactory.conf:3
2019/08/14 02:52:29 [emerg] 1#1: BIO_new_file("/etc/nginx/ssl/example.pem") failed (SSL: error:02001002:system library:fopen:No such file or directory:fopen('/etc/nginx/ssl/example.pem','r') error:2006D080:BIO routines:BIO_new_file:no such file)
2019/08/14 02:52:31 [emerg] 1#1: host not found in upstream "artifactory-node2:8082" in /etc/nginx/conf.d/artifactory.conf:4
2019/08/14 02:52:34 [emerg] 1#1: host not found in upstream "artifactory-node1:8081" in /etc/nginx/conf.d/artifactory.conf:3
2019/08/14 02:52:37 [emerg] 1#1: BIO_new_file("/etc/nginx/ssl/example.pem") failed (SSL: error:02001002:system library:fopen:No such file or directory:fopen('/etc/nginx/ssl/example.pem','r') error:2006D080:BIO routines:BIO_new_file:no such file)
2019/08/14 02:52:41 [emerg] 1#1: host not found in upstream "artifactory-node1:8081" in /etc/nginx/conf.d/artifactory.conf:3
2019/08/14 02:52:49 [emerg] 1#1: host not found in upstream "artifactory-node1:8081" in /etc/nginx/conf.d/artifactory.conf:3
2019/08/14 02:53:03 [emerg] 1#1: host not found in upstream "artifactory-node1:8081" in /etc/nginx/conf.d/artifactory.conf:3
2019/08/14 02:53:30 [emerg] 1#1: host not found in upstream "artifactory-node1:8081" in /etc/nginx/conf.d/artifactory.conf:3
2019/08/14 02:54:23 [emerg] 1#1: host not found in upstream "artifactory-node1:8081" in /etc/nginx/conf.d/artifactory.conf:3
2019/08/14 02:55:27 [emerg] 1#1: BIO_new_file("/etc/nginx/ssl/example.pem") failed (SSL: error:02001002:system library:fopen:No such file or directory:fopen('/etc/nginx/ssl/example.pem','r') error:2006D080:BIO routines:BIO_new_file:no such file)
2019/08/14 02:55:29 [emerg] 1#1: BIO_new_file("/etc/nginx/ssl/example.pem") failed (SSL: error:02001002:system library:fopen:No such file or directory:fopen('/etc/nginx/ssl/example.pem','r') error:2006D080:BIO routines:BIO_new_file:no such file)
2019/08/14 02:55:32 [emerg] 1#1: BIO_new_file("/etc/nginx/ssl/example.pem") failed (SSL: error:02001002:system library:fopen:No such file or directory:fopen('/etc/nginx/ssl/example.pem','r') error:2006D080:BIO routines:BIO_new_file:no such file)
2019/08/14 02:55:35 [emerg] 1#1: BIO_new_file("/etc/nginx/ssl/example.pem") failed (SSL: error:02001002:system library:fopen:No such file or directory:fopen('/etc/nginx/ssl/example.pem','r') error:2006D080:BIO routines:BIO_new_file:no such file)
2019/08/14 02:55:43 [emerg] 1#1: BIO_new_file("/etc/nginx/ssl/example.pem") failed (SSL: error:02001002:system library:fopen:No such file or directory:fopen('/etc/nginx/ssl/example.pem','r') error:2006D080:BIO routines:BIO_new_file:no such file)
2019/08/14 02:55:47 [emerg] 1#1: BIO_new_file("/etc/nginx/ssl/example.pem") failed (SSL: error:02001002:system library:fopen:No such file or directory:fopen('/etc/nginx/ssl/example.pem','r') error:2006D080:BIO routines:BIO_new_file:no such file)
2019/08/14 02:55:53 [emerg] 1#1: BIO_new_file("/etc/nginx/ssl/example.pem") failed (SSL: error:02001002:system library:fopen:No such file or directory:fopen('/etc/nginx/ssl/example.pem','r') error:2006D080:BIO routines:BIO_new_file:no such file)
2019/08/14 02:56:01 [emerg] 1#1: BIO_new_file("/etc/nginx/ssl/example.pem") failed (SSL: error:02001002:system library:fopen:No such file or directory:fopen('/etc/nginx/ssl/example.pem','r') error:2006D080:BIO routines:BIO_new_file:no such file)
2019/08/14 02:56:19 [emerg] 1#1: BIO_new_file("/etc/nginx/ssl/example.pem") failed (SSL: error:02001002:system library:fopen:No such file or directory:fopen('/etc/nginx/ssl/example.pem','r') error:2006D080:BIO routines:BIO_new_file:no such file)
2019/08/14 02:56:50 [emerg] 1#1: BIO_new_file("/etc/nginx/ssl/example.pem") failed (SSL: error:02001002:system library:fopen:No such file or directory:fopen('/etc/nginx/ssl/example.pem','r') error:2006D080:BIO routines:BIO_new_file:no such file)
2019/08/14 02:57:45 [emerg] 1#1: BIO_new_file("/etc/nginx/ssl/example.pem") failed (SSL: error:02001002:system library:fopen:No such file or directory:fopen('/etc/nginx/ssl/example.pem','r') error:2006D080:BIO routines:BIO_new_file:no such file)
2019/08/14 02:58:47 [emerg] 1#1: BIO_new_file("/etc/nginx/ssl/example.pem") failed (SSL: error:02001002:system library:fopen:No such file or directory:fopen('/etc/nginx/ssl/example.pem','r') error:2006D080:BIO routines:BIO_new_file:no such file)
2019/08/14 02:59:48 [emerg] 1#1: BIO_new_file("/etc/nginx/ssl/example.pem") failed (SSL: error:02001002:system library:fopen:No such file or directory:fopen('/etc/nginx/ssl/example.pem','r') error:2006D080:BIO routines:BIO_new_file:no such file)
2019/08/14 03:00:50 [emerg] 1#1: BIO_new_file("/etc/nginx/ssl/example.pem") failed (SSL: error:02001002:system library:fopen:No such file or directory:fopen('/etc/nginx/ssl/example.pem','r') error:2006D080:BIO routines:BIO_new_file:no such file)
2019/08/14 03:01:51 [emerg] 1#1: BIO_new_file("/etc/nginx/ssl/example.pem") failed (SSL: error:02001002:system library:fopen:No such file or directory:fopen('/etc/nginx/ssl/example.pem','r') error:2006D080:BIO routines:BIO_new_file:no such file)
2019/08/14 03:02:52 [emerg] 1#1: host not found in upstream "artifactory" in /etc/nginx/conf.d/artifactory.conf:31
2019/08/14 03:03:54 [emerg] 1#1: BIO_new_file("/etc/nginx/ssl/example.pem") failed (SSL: error:02001002:system library:fopen:No such file or directory:fopen('/etc/nginx/ssl/example.pem','r') error:2006D080:BIO routines:BIO_new_file:no such file)
2019/08/14 03:04:55 [emerg] 1#1: BIO_new_file("/etc/nginx/ssl/example.pem") failed (SSL: error:02001002:system library:fopen:No such file or directory:fopen('/etc/nginx/ssl/example.pem','r') error:2006D080:BIO routines:BIO_new_file:no such file)
2019/08/14 03:05:56 [emerg] 1#1: BIO_new_file("/etc/nginx/ssl/example.pem") failed (SSL: error:02001002:system library:fopen:No such file or directory:fopen('/etc/nginx/ssl/example.pem','r') error:2006D080:BIO routines:BIO_new_file:no such file)
2019/08/14 03:06:58 [emerg] 1#1: BIO_new_file("/etc/nginx/ssl/example.pem") failed (SSL: error:02001002:system library:fopen:No such file or directory:fopen('/etc/nginx/ssl/example.pem','r') error:2006D080:BIO routines:BIO_new_file:no such file)
2019/08/14 03:07:59 [emerg] 1#1: BIO_new_file("/etc/nginx/ssl/example.pem") failed (SSL: error:02001002:system library:fopen:No such file or directory:fopen('/etc/nginx/ssl/example.pem','r') error:2006D080:BIO routines:BIO_new_file:no such file)
2019/08/14 03:09:00 [emerg] 1#1: BIO_new_file("/etc/nginx/ssl/example.pem") failed (SSL: error:02001002:system library:fopen:No such file or directory:fopen('/etc/nginx/ssl/example.pem','r') error:2006D080:BIO routines:BIO_new_file:no such file)
2019/08/14 03:10:02 [emerg] 1#1: BIO_new_file("/etc/nginx/ssl/example.pem") failed (SSL: error:02001002:system library:fopen:No such file or directory:fopen('/etc/nginx/ssl/example.pem','r') error:2006D080:BIO routines:BIO_new_file:no such file)
2019/08/14 03:11:03 [emerg] 1#1: BIO_new_file("/etc/nginx/ssl/example.pem") failed (SSL: error:02001002:system library:fopen:No such file or directory:fopen('/etc/nginx/ssl/example.pem','r') error:2006D080:BIO routines:BIO_new_file:no such file)
2019/08/14 03:12:04 [emerg] 1#1: BIO_new_file("/etc/nginx/ssl/example.pem") failed (SSL: error:02001002:system library:fopen:No such file or directory:fopen('/etc/nginx/ssl/example.pem','r') error:2006D080:BIO routines:BIO_new_file:no such file)
2019/08/14 03:13:06 [emerg] 1#1: BIO_new_file("/etc/nginx/ssl/example.pem") failed (SSL: error:02001002:system library:fopen:No such file or directory:fopen('/etc/nginx/ssl/example.pem','r') error:2006D080:BIO routines:BIO_new_file:no such file)
2019/08/14 03:14:07 [emerg] 1#1: BIO_new_file("/etc/nginx/ssl/example.pem") failed (SSL: error:02001002:system library:fopen:No such file or directory:fopen('/etc/nginx/ssl/example.pem','r') error:2006D080:BIO routines:BIO_new_file:no such file)
2019/08/14 03:15:08 [emerg] 1#1: BIO_new_file("/etc/nginx/ssl/example.pem") failed (SSL: error:02001002:system library:fopen:No such file or directory:fopen('/etc/nginx/ssl/example.pem','r') error:2006D080:BIO routines:BIO_new_file:no such file)
2019/08/14 03:16:10 [emerg] 1#1: BIO_new_file("/etc/nginx/ssl/example.pem") failed (SSL: error:02001002:system library:fopen:No such file or directory:fopen('/etc/nginx/ssl/example.pem','r') error:2006D080:BIO routines:BIO_new_file:no such file)
2019/08/14 03:17:11 [emerg] 1#1: BIO_new_file("/etc/nginx/ssl/example.pem") failed (SSL: error:02001002:system library:fopen:No such file or directory:fopen('/etc/nginx/ssl/example.pem','r') error:2006D080:BIO routines:BIO_new_file:no such file)
2019/08/14 03:18:13 [emerg] 1#1: BIO_new_file("/etc/nginx/ssl/example.pem") failed (SSL: error:02001002:system library:fopen:No such file or directory:fopen('/etc/nginx/ssl/example.pem','r') error:2006D080:BIO routines:BIO_new_file:no such file)
2019/08/14 03:19:14 [emerg] 1#1: BIO_new_file("/etc/nginx/ssl/example.pem") failed (SSL: error:02001002:system library:fopen:No such file or directory:fopen('/etc/nginx/ssl/example.pem','r') error:2006D080:BIO routines:BIO_new_file:no such file)
2019/08/14 03:20:15 [emerg] 1#1: BIO_new_file("/etc/nginx/ssl/example.pem") failed (SSL: error:02001002:system library:fopen:No such file or directory:fopen('/etc/nginx/ssl/example.pem','r') error:2006D080:BIO routines:BIO_new_file:no such file)
2019/08/14 03:21:17 [emerg] 1#1: BIO_new_file("/etc/nginx/ssl/example.pem") failed (SSL: error:02001002:system library:fopen:No such file or directory:fopen('/etc/nginx/ssl/example.pem','r') error:2006D080:BIO routines:BIO_new_file:no such file)
2019/08/14 03:22:18 [emerg] 1#1: BIO_new_file("/etc/nginx/ssl/example.pem") failed (SSL: error:02001002:system library:fopen:No such file or directory:fopen('/etc/nginx/ssl/example.pem','r') error:2006D080:BIO routines:BIO_new_file:no such file)
2019/08/14 03:23:20 [emerg] 1#1: BIO_new_file("/etc/nginx/ssl/example.pem") failed (SSL: error:02001002:system library:fopen:No such file or directory:fopen('/etc/nginx/ssl/example.pem','r') error:2006D080:BIO routines:BIO_new_file:no such file)
2019/08/14 03:24:21 [emerg] 1#1: BIO_new_file("/etc/nginx/ssl/example.pem") failed (SSL: error:02001002:system library:fopen:No such file or directory:fopen('/etc/nginx/ssl/example.pem','r') error:2006D080:BIO routines:BIO_new_file:no such file)
2019/08/14 03:25:23 [emerg] 1#1: BIO_new_file("/etc/nginx/ssl/example.pem") failed (SSL: error:02001002:system library:fopen:No such file or directory:fopen('/etc/nginx/ssl/example.pem','r') error:2006D080:BIO routines:BIO_new_file:no such file)
2019/08/14 03:26:24 [emerg] 1#1: BIO_new_file("/etc/nginx/ssl/example.pem") failed (SSL: error:02001002:system library:fopen:No such file or directory:fopen('/etc/nginx/ssl/example.pem','r') error:2006D080:BIO routines:BIO_new_file:no such file)
2019/08/14 03:27:26 [emerg] 1#1: BIO_new_file("/etc/nginx/ssl/example.pem") failed (SSL: error:02001002:system library:fopen:No such file or directory:fopen('/etc/nginx/ssl/example.pem','r') error:2006D080:BIO routines:BIO_new_file:no such file)
2019/08/14 03:28:27 [emerg] 1#1: BIO_new_file("/etc/nginx/ssl/example.pem") failed (SSL: error:02001002:system library:fopen:No such file or directory:fopen('/etc/nginx/ssl/example.pem','r') error:2006D080:BIO routines:BIO_new_file:no such file)
2019/08/14 03:29:29 [emerg] 1#1: BIO_new_file("/etc/nginx/ssl/example.pem") failed (SSL: error:02001002:system library:fopen:No such file or directory:fopen('/etc/nginx/ssl/example.pem','r') error:2006D080:BIO routines:BIO_new_file:no such file)
2019/08/14 03:30:30 [emerg] 1#1: BIO_new_file("/etc/nginx/ssl/example.pem") failed (SSL: error:02001002:system library:fopen:No such file or directory:fopen('/etc/nginx/ssl/example.pem','r') error:2006D080:BIO routines:BIO_new_file:no such file)
2019/08/14 03:31:31 [emerg] 1#1: BIO_new_file("/etc/nginx/ssl/example.pem") failed (SSL: error:02001002:system library:fopen:No such file or directory:fopen('/etc/nginx/ssl/example.pem','r') error:2006D080:BIO routines:BIO_new_file:no such file)
2019/08/14 03:32:33 [emerg] 1#1: BIO_new_file("/etc/nginx/ssl/example.pem") failed (SSL: error:02001002:system library:fopen:No such file or directory:fopen('/etc/nginx/ssl/example.pem','r') error:2006D080:BIO routines:BIO_new_file:no such file)
2019/08/14 03:33:34 [emerg] 1#1: BIO_new_file("/etc/nginx/ssl/example.pem") failed (SSL: error:02001002:system library:fopen:No such file or directory:fopen('/etc/nginx/ssl/example.pem','r') error:2006D080:BIO routines:BIO_new_file:no such file)
2019/08/14 03:34:35 [emerg] 1#1: host not found in upstream "artifactory" in /etc/nginx/conf.d/artifactory.conf:31
2019/08/14 03:35:37 [emerg] 1#1: BIO_new_file("/etc/nginx/ssl/example.pem") failed (SSL: error:02001002:system library:fopen:No such file or directory:fopen('/etc/nginx/ssl/example.pem','r') error:2006D080:BIO routines:BIO_new_file:no such file)
2019/08/14 03:36:38 [emerg] 1#1: BIO_new_file("/etc/nginx/ssl/example.pem") failed (SSL: error:02001002:system library:fopen:No such file or directory:fopen('/etc/nginx/ssl/example.pem','r') error:2006D080:BIO routines:BIO_new_file:no such file)
2019/08/14 03:37:39 [emerg] 1#1: BIO_new_file("/etc/nginx/ssl/example.pem") failed (SSL: error:02001002:system library:fopen:No such file or directory:fopen('/etc/nginx/ssl/example.pem','r') error:2006D080:BIO routines:BIO_new_file:no such file)
2019/08/14 03:38:41 [emerg] 1#1: BIO_new_file("/etc/nginx/ssl/example.pem") failed (SSL: error:02001002:system library:fopen:No such file or directory:fopen('/etc/nginx/ssl/example.pem','r') error:2006D080:BIO routines:BIO_new_file:no such file)
2019/08/14 03:39:42 [emerg] 1#1: host not found in upstream "artifactory" in /etc/nginx/conf.d/artifactory.conf:31
2019/08/14 03:40:43 [emerg] 1#1: BIO_new_file("/etc/nginx/ssl/example.pem") failed (SSL: error:02001002:system library:fopen:No such file or directory:fopen('/etc/nginx/ssl/example.pem','r') error:2006D080:BIO routines:BIO_new_file:no such file)
2019/08/14 03:41:45 [emerg] 1#1: BIO_new_file("/etc/nginx/ssl/example.pem") failed (SSL: error:02001002:system library:fopen:No such file or directory:fopen('/etc/nginx/ssl/example.pem','r') error:2006D080:BIO routines:BIO_new_file:no such file)
2019/08/14 03:42:46 [emerg] 1#1: BIO_new_file("/etc/nginx/ssl/example.pem") failed (SSL: error:02001002:system library:fopen:No such file or directory:fopen('/etc/nginx/ssl/example.pem','r') error:2006D080:BIO routines:BIO_new_file:no such file)
2019/08/14 03:43:14 [emerg] 1#1: host not found in upstream "artifactory" in /etc/nginx/conf.d/artifactory.conf:31
2019/08/14 03:43:15 [emerg] 1#1: host not found in upstream "artifactory" in /etc/nginx/conf.d/artifactory.conf:31
2019/08/14 03:43:17 [emerg] 1#1: host not found in upstream "artifactory" in /etc/nginx/conf.d/artifactory.conf:31
2019/08/14 03:43:19 [emerg] 1#1: host not found in upstream "artifactory" in /etc/nginx/conf.d/artifactory.conf:31
2019/08/14 03:43:21 [emerg] 1#1: host not found in upstream "artifactory" in /etc/nginx/conf.d/artifactory.conf:31
2019/08/14 03:43:24 [emerg] 1#1: host not found in upstream "artifactory" in /etc/nginx/conf.d/artifactory.conf:31
2019/08/14 03:43:28 [emerg] 1#1: host not found in upstream "artifactory" in /etc/nginx/conf.d/artifactory.conf:31
2019/08/14 03:43:36 [emerg] 1#1: host not found in upstream "artifactory" in /etc/nginx/conf.d/artifactory.conf:31
2019/08/14 03:43:50 [emerg] 1#1: SSL_CTX_use_PrivateKey_file("/etc/nginx/ssl/example.key") failed (SSL: error:0B080074:x509 certificate routines:X509_check_private_key:key values mismatch)
2019/08/14 03:44:17 [emerg] 1#1: host not found in upstream "artifactory" in /etc/nginx/conf.d/artifactory.conf:31
2019/08/14 03:45:10 [emerg] 1#1: SSL_CTX_use_PrivateKey_file("/etc/nginx/ssl/example.key") failed (SSL: error:0B080074:x509 certificate routines:X509_check_private_key:key values mismatch)
2019/08/14 03:45:53 [emerg] 1#1: host not found in upstream "artifactory" in /etc/nginx/conf.d/artifactory.conf:31
2019/08/14 03:45:55 [emerg] 1#1: PEM_read_bio_X509_AUX("/etc/nginx/ssl/example.pem") failed (SSL: error:0909006C:PEM routines:get_name:no start line:Expecting: TRUSTED CERTIFICATE)
2019/08/14 03:45:56 [emerg] 1#1: host not found in upstream "artifactory" in /etc/nginx/conf.d/artifactory.conf:31
2019/08/14 03:46:01 [emerg] 1#1: host not found in upstream "artifactory" in /etc/nginx/conf.d/artifactory.conf:31
2019/08/14 03:46:04 [emerg] 1#1: host not found in upstream "artifactory" in /etc/nginx/conf.d/artifactory.conf:31
2019/08/14 03:46:08 [emerg] 1#1: host not found in upstream "artifactory" in /etc/nginx/conf.d/artifactory.conf:31
2019/08/14 03:46:16 [emerg] 1#1: PEM_read_bio_X509_AUX("/etc/nginx/ssl/example.pem") failed (SSL: error:0909006C:PEM routines:get_name:no start line:Expecting: TRUSTED CERTIFICATE)
2019/08/14 03:46:57 [emerg] 1#1: PEM_read_bio_X509_AUX("/etc/nginx/ssl/example.pem") failed (SSL: error:0909006C:PEM routines:get_name:no start line:Expecting: TRUSTED CERTIFICATE)
2019/08/14 03:47:49 [emerg] 1#1: host not found in upstream "artifactory" in /etc/nginx/conf.d/artifactory.conf:31
2019/08/14 03:48:51 [emerg] 1#1: host not found in upstream "artifactory" in /etc/nginx/conf.d/artifactory.conf:31
2019/08/14 03:49:52 [emerg] 1#1: PEM_read_bio_X509_AUX("/etc/nginx/ssl/example.pem") failed (SSL: error:0909006C:PEM routines:get_name:no start line:Expecting: TRUSTED CERTIFICATE)
2019/08/14 03:50:54 [emerg] 1#1: host not found in upstream "artifactory" in /etc/nginx/conf.d/artifactory.conf:31
2019/08/14 03:51:55 [emerg] 1#1: host not found in upstream "artifactory" in /etc/nginx/conf.d/artifactory.conf:31
2019/08/14 03:52:56 [emerg] 1#1: PEM_read_bio_X509_AUX("/etc/nginx/ssl/example.pem") failed (SSL: error:0909006C:PEM routines:get_name:no start line:Expecting: TRUSTED CERTIFICATE)
2019/08/14 03:53:58 [emerg] 1#1: PEM_read_bio_X509_AUX("/etc/nginx/ssl/example.pem") failed (SSL: error:0909006C:PEM routines:get_name:no start line:Expecting: TRUSTED CERTIFICATE)
2019/08/14 03:54:59 [emerg] 1#1: host not found in upstream "artifactory" in /etc/nginx/conf.d/artifactory.conf:31
2019/08/14 03:56:00 [emerg] 1#1: PEM_read_bio_X509_AUX("/etc/nginx/ssl/example.pem") failed (SSL: error:0909006C:PEM routines:get_name:no start line:Expecting: TRUSTED CERTIFICATE)
2019/08/14 03:57:28 [emerg] 1#1: PEM_read_bio_X509_AUX("/etc/nginx/ssl/example.pem") failed (SSL: error:0909006C:PEM routines:get_name:no start line:Expecting: TRUSTED CERTIFICATE)
2019/08/14 03:57:30 [emerg] 1#1: PEM_read_bio_X509_AUX("/etc/nginx/ssl/example.pem") failed (SSL: error:0909006C:PEM routines:get_name:no start line:Expecting: TRUSTED CERTIFICATE)
2019/08/14 03:57:32 [emerg] 1#1: PEM_read_bio_X509_AUX("/etc/nginx/ssl/example.pem") failed (SSL: error:0909006C:PEM routines:get_name:no start line:Expecting: TRUSTED CERTIFICATE)
2019/08/14 03:57:34 [emerg] 1#1: PEM_read_bio_X509_AUX("/etc/nginx/ssl/example.pem") failed (SSL: error:0909006C:PEM routines:get_name:no start line:Expecting: TRUSTED CERTIFICATE)
2019/08/14 03:57:36 [emerg] 1#1: PEM_read_bio_X509_AUX("/etc/nginx/ssl/example.pem") failed (SSL: error:0909006C:PEM routines:get_name:no start line:Expecting: TRUSTED CERTIFICATE)
2019/08/14 03:57:39 [emerg] 1#1: PEM_read_bio_X509_AUX("/etc/nginx/ssl/example.pem") failed (SSL: error:0909006C:PEM routines:get_name:no start line:Expecting: TRUSTED CERTIFICATE)
2019/08/14 03:57:44 [emerg] 1#1: PEM_read_bio_X509_AUX("/etc/nginx/ssl/example.pem") failed (SSL: error:0909006C:PEM routines:get_name:no start line:Expecting: TRUSTED CERTIFICATE)
2019/08/14 03:57:52 [emerg] 1#1: PEM_read_bio_X509_AUX("/etc/nginx/ssl/example.pem") failed (SSL: error:0909006C:PEM routines:get_name:no start line:Expecting: TRUSTED CERTIFICATE)
2019/08/14 03:58:07 [emerg] 1#1: PEM_read_bio_X509_AUX("/etc/nginx/ssl/example.pem") failed (SSL: error:0909006C:PEM routines:get_name:no start line:Expecting: TRUSTED CERTIFICATE)
2019/08/14 03:58:35 [emerg] 1#1: PEM_read_bio_X509_AUX("/etc/nginx/ssl/example.pem") failed (SSL: error:0909006C:PEM routines:get_name:no start line:Expecting: TRUSTED CERTIFICATE)
2019/08/14 03:59:19 [emerg] 1#1: host not found in upstream "artifactory" in /etc/nginx/conf.d/artifactory.conf:31
2019/08/14 03:59:21 [emerg] 1#1: PEM_read_bio_X509_AUX("/etc/nginx/ssl/example.pem") failed (SSL: error:0909006C:PEM routines:get_name:no start line:Expecting: TRUSTED CERTIFICATE)
2019/08/14 03:59:23 [emerg] 1#1: host not found in upstream "artifactory" in /etc/nginx/conf.d/artifactory.conf:31
2019/08/14 03:59:24 [emerg] 1#1: PEM_read_bio_X509_AUX("/etc/nginx/ssl/example.pem") failed (SSL: error:0909006C:PEM routines:get_name:no start line:Expecting: TRUSTED CERTIFICATE)
2019/08/14 03:59:27 [emerg] 1#1: PEM_read_bio_X509_AUX("/etc/nginx/ssl/example.pem") failed (SSL: error:0909006C:PEM routines:get_name:no start line:Expecting: TRUSTED CERTIFICATE)
2019/08/14 03:59:30 [emerg] 1#1: PEM_read_bio_X509_AUX("/etc/nginx/ssl/example.pem") failed (SSL: error:0909006C:PEM routines:get_name:no start line:Expecting: TRUSTED CERTIFICATE)
2019/08/14 03:59:34 [emerg] 1#1: PEM_read_bio_X509_AUX("/etc/nginx/ssl/example.pem") failed (SSL: error:0909006C:PEM routines:get_name:no start line:Expecting: TRUSTED CERTIFICATE)
2019/08/14 03:59:42 [emerg] 1#1: PEM_read_bio_X509_AUX("/etc/nginx/ssl/example.pem") failed (SSL: error:0909006C:PEM routines:get_name:no start line:Expecting: TRUSTED CERTIFICATE)
2019/08/14 03:59:56 [emerg] 1#1: PEM_read_bio_X509_AUX("/etc/nginx/ssl/example.pem") failed (SSL: error:0909006C:PEM routines:get_name:no start line:Expecting: TRUSTED CERTIFICATE)
2019/08/14 04:00:23 [emerg] 1#1: PEM_read_bio_X509_AUX("/etc/nginx/ssl/example.pem") failed (SSL: error:0909006C:PEM routines:get_name:no start line:Expecting: TRUSTED CERTIFICATE)
2019/08/14 04:01:16 [emerg] 1#1: SSL_CTX_use_PrivateKey_file("/etc/nginx/ssl/example.key") failed (SSL: error:0B080074:x509 certificate routines:X509_check_private_key:key values mismatch)
2019/08/14 04:01:30 [emerg] 1#1: host not found in upstream "artifactory" in /etc/nginx/conf.d/artifactory.conf:31
2019/08/14 04:01:31 [emerg] 1#1: host not found in upstream "artifactory" in /etc/nginx/conf.d/artifactory.conf:31
2019/08/14 04:01:33 [emerg] 1#1: SSL_CTX_use_PrivateKey_file("/etc/nginx/ssl/example.key") failed (SSL: error:0B080074:x509 certificate routines:X509_check_private_key:key values mismatch)
2019/08/14 04:01:35 [emerg] 1#1: host not found in upstream "artifactory" in /etc/nginx/conf.d/artifactory.conf:31
2019/08/14 04:01:37 [emerg] 1#1: SSL_CTX_use_PrivateKey_file("/etc/nginx/ssl/example.key") failed (SSL: error:0B080074:x509 certificate routines:X509_check_private_key:key values mismatch)
2019/08/14 04:01:40 [emerg] 1#1: SSL_CTX_use_PrivateKey_file("/etc/nginx/ssl/example.key") failed (SSL: error:0B080074:x509 certificate routines:X509_check_private_key:key values mismatch)
2019/08/14 04:01:44 [emerg] 1#1: host not found in upstream "artifactory" in /etc/nginx/conf.d/artifactory.conf:31
2019/08/14 04:01:52 [emerg] 1#1: SSL_CTX_use_PrivateKey_file("/etc/nginx/ssl/example.key") failed (SSL: error:0B080074:x509 certificate routines:X509_check_private_key:key values mismatch)
2019/08/14 04:02:06 [emerg] 1#1: SSL_CTX_use_PrivateKey_file("/etc/nginx/ssl/example.key") failed (SSL: error:0B080074:x509 certificate routines:X509_check_private_key:key values mismatch)
2019/08/14 04:02:33 [emerg] 1#1: host not found in upstream "artifactory" in /etc/nginx/conf.d/artifactory.conf:31
2019/08/14 04:03:26 [emerg] 1#1: SSL_CTX_use_PrivateKey_file("/etc/nginx/ssl/example.key") failed (SSL: error:0B080074:x509 certificate routines:X509_check_private_key:key values mismatch)
2019/08/14 04:04:27 [emerg] 1#1: host not found in upstream "artifactory" in /etc/nginx/conf.d/artifactory.conf:31
2019/08/14 04:06:40 [emerg] 1#1: host not found in upstream "artifactory" in /etc/nginx/conf.d/artifactory.conf:31
2019/08/14 04:07:07 [emerg] 1#1: SSL_CTX_use_PrivateKey_file("/etc/nginx/ssl/example.key") failed (SSL: error:0B080074:x509 certificate routines:X509_check_private_key:key values mismatch)
2019/08/14 04:07:59 [emerg] 1#1: SSL_CTX_use_PrivateKey_file("/etc/nginx/ssl/example.key") failed (SSL: error:0B080074:x509 certificate routines:X509_check_private_key:key values mismatch)
2019/08/14 04:09:01 [emerg] 1#1: BIO_new_file("/etc/nginx/ssl/example.pem") failed (SSL: error:02001002:system library:fopen:No such file or directory:fopen('/etc/nginx/ssl/example.pem','r') error:2006D080:BIO routines:BIO_new_file:no such file)
2019/08/14 04:09:40 [emerg] 1#1: BIO_new_file("/etc/nginx/ssl/example.pem") failed (SSL: error:02001002:system library:fopen:No such file or directory:fopen('/etc/nginx/ssl/example.pem','r') error:2006D080:BIO routines:BIO_new_file:no such file)
2019/08/14 04:09:42 [emerg] 1#1: BIO_new_file("/etc/nginx/ssl/example.pem") failed (SSL: error:02001002:system library:fopen:No such file or directory:fopen('/etc/nginx/ssl/example.pem','r') error:2006D080:BIO routines:BIO_new_file:no such file)
2019/08/14 04:09:44 [emerg] 1#1: BIO_new_file("/etc/nginx/ssl/example.pem") failed (SSL: error:02001002:system library:fopen:No such file or directory:fopen('/etc/nginx/ssl/example.pem','r') error:2006D080:BIO routines:BIO_new_file:no such file)
2019/08/14 04:09:45 [emerg] 1#1: host not found in upstream "artifactory" in /etc/nginx/conf.d/artifactory.conf:31
2019/08/14 04:09:48 [emerg] 1#1: host not found in upstream "artifactory" in /etc/nginx/conf.d/artifactory.conf:31
2019/08/14 04:09:51 [emerg] 1#1: host not found in upstream "artifactory" in /etc/nginx/conf.d/artifactory.conf:31
2019/08/14 04:09:55 [emerg] 1#1: host not found in upstream "artifactory" in /etc/nginx/conf.d/artifactory.conf:31
2019/08/14 04:10:03 [emerg] 1#1: host not found in upstream "artifactory" in /etc/nginx/conf.d/artifactory.conf:31
2019/08/14 04:10:17 [emerg] 1#1: host not found in upstream "artifactory" in /etc/nginx/conf.d/artifactory.conf:31
2019/08/14 04:10:44 [emerg] 1#1: host not found in upstream "artifactory" in /etc/nginx/conf.d/artifactory.conf:31
2019/08/14 04:11:37 [emerg] 1#1: BIO_new_file("/etc/nginx/ssl/example.pem") failed (SSL: error:02001002:system library:fopen:No such file or directory:fopen('/etc/nginx/ssl/example.pem','r') error:2006D080:BIO routines:BIO_new_file:no such file)
2019/08/14 04:12:38 [emerg] 1#1: BIO_new_file("/etc/nginx/ssl/example.pem") failed (SSL: error:02001002:system library:fopen:No such file or directory:fopen('/etc/nginx/ssl/example.pem','r') error:2006D080:BIO routines:BIO_new_file:no such file)
2019/08/14 04:13:39 [emerg] 1#1: BIO_new_file("/etc/nginx/ssl/example.pem") failed (SSL: error:02001002:system library:fopen:No such file or directory:fopen('/etc/nginx/ssl/example.pem','r') error:2006D080:BIO routines:BIO_new_file:no such file)
2019/08/14 04:14:41 [emerg] 1#1: BIO_new_file("/etc/nginx/ssl/example.pem") failed (SSL: error:02001002:system library:fopen:No such file or directory:fopen('/etc/nginx/ssl/example.pem','r') error:2006D080:BIO routines:BIO_new_file:no such file)
2019/08/14 04:15:51 [error] 103#103: *1 connect() failed (111: Connection refused) while connecting to upstream, client: 10.1.20.68, server: ~(?<repo>.+)\.artifactory, request: "GET /artifactory/webapp/css/vendorStyles.2299.css HTTP/1.1", upstream: "http://172.29.0.4:8082/artifactory/webapp/css/vendorStyles.2299.css", host: "ho-srvt-uat-node01.corp.saigonbpo.vn", referrer: "http://ho-srvt-uat-node01.corp.saigonbpo.vn/artifactory/webapp/"
2019/08/14 04:15:51 [warn] 103#103: *1 upstream server temporarily disabled while connecting to upstream, client: 10.1.20.68, server: ~(?<repo>.+)\.artifactory, request: "GET /artifactory/webapp/css/vendorStyles.2299.css HTTP/1.1", upstream: "http://172.29.0.4:8082/artifactory/webapp/css/vendorStyles.2299.css", host: "ho-srvt-uat-node01.corp.saigonbpo.vn", referrer: "http://ho-srvt-uat-node01.corp.saigonbpo.vn/artifactory/webapp/"
2019/08/14 04:15:51 [warn] 103#103: *5 an upstream response is buffered to a temporary file /var/lib/nginx/proxy/1/00/0000000001 while reading upstream, client: 10.1.20.68, server: ~(?<repo>.+)\.artifactory, request: "GET /artifactory/webapp/vendorScripts.2299.js HTTP/1.1", upstream: "http://172.29.0.3:8081/artifactory/webapp/vendorScripts.2299.js", host: "ho-srvt-uat-node01.corp.saigonbpo.vn", referrer: "http://ho-srvt-uat-node01.corp.saigonbpo.vn/artifactory/webapp/"
2019/08/14 04:15:52 [error] 104#104: *4 connect() failed (111: Connection refused) while connecting to upstream, client: 10.1.20.68, server: ~(?<repo>.+)\.artifactory, request: "GET /artifactory/ui/auth/screen/footer HTTP/1.1", upstream: "http://172.29.0.4:8082/artifactory/ui/auth/screen/footer", host: "ho-srvt-uat-node01.corp.saigonbpo.vn", referrer: "http://ho-srvt-uat-node01.corp.saigonbpo.vn/artifactory/webapp/"
2019/08/14 04:15:52 [warn] 104#104: *4 upstream server temporarily disabled while connecting to upstream, client: 10.1.20.68, server: ~(?<repo>.+)\.artifactory, request: "GET /artifactory/ui/auth/screen/footer HTTP/1.1", upstream: "http://172.29.0.4:8082/artifactory/ui/auth/screen/footer", host: "ho-srvt-uat-node01.corp.saigonbpo.vn", referrer: "http://ho-srvt-uat-node01.corp.saigonbpo.vn/artifactory/webapp/"
2019/08/14 04:17:12 [error] 103#103: *79 connect() failed (111: Connection refused) while connecting to upstream, client: 10.1.20.68, server: ~(?<repo>.+)\.artifactory, request: "GET /artifactory/webapp/fonts/OpenSans/OpenSans-Regular/OpenSans-Regular-webfont.2299.woff HTTP/1.1", upstream: "http://172.29.0.4:8082/artifactory/webapp/fonts/OpenSans/OpenSans-Regular/OpenSans-Regular-webfont.2299.woff", host: "ho-srvt-uat-node01.corp.saigonbpo.vn", referrer: "http://ho-srvt-uat-node01.corp.saigonbpo.vn/artifactory/webapp/css/vendorStyles.2299.css"
2019/08/14 04:17:12 [warn] 103#103: *79 upstream server temporarily disabled while connecting to upstream, client: 10.1.20.68, server: ~(?<repo>.+)\.artifactory, request: "GET /artifactory/webapp/fonts/OpenSans/OpenSans-Regular/OpenSans-Regular-webfont.2299.woff HTTP/1.1", upstream: "http://172.29.0.4:8082/artifactory/webapp/fonts/OpenSans/OpenSans-Regular/OpenSans-Regular-webfont.2299.woff", host: "ho-srvt-uat-node01.corp.saigonbpo.vn", referrer: "http://ho-srvt-uat-node01.corp.saigonbpo.vn/artifactory/webapp/css/vendorStyles.2299.css"
2019/08/14 04:18:40 [alert] 1#1: unlink() "/var/run/nginx.pid" failed (13: Permission denied)
2019/08/14 04:22:58 [emerg] 1#1: BIO_new_file("/etc/nginx/ssl/example.pem") failed (SSL: error:02001002:system library:fopen:No such file or directory:fopen('/etc/nginx/ssl/example.pem','r') error:2006D080:BIO routines:BIO_new_file:no such file)
2019/08/14 04:23:00 [emerg] 1#1: BIO_new_file("/etc/nginx/ssl/example.pem") failed (SSL: error:02001002:system library:fopen:No such file or directory:fopen('/etc/nginx/ssl/example.pem','r') error:2006D080:BIO routines:BIO_new_file:no such file)
2019/08/14 04:23:03 [emerg] 1#1: BIO_new_file("/etc/nginx/ssl/example.pem") failed (SSL: error:02001002:system library:fopen:No such file or directory:fopen('/etc/nginx/ssl/example.pem','r') error:2006D080:BIO routines:BIO_new_file:no such file)
2019/08/14 04:23:30 [warn] 104#104: *1 upstream server temporarily disabled while reading response header from upstream, client: 10.1.20.68, server: ~(?<repo>.+)\.artifactory, request: "GET /artifactory/webapp/ HTTP/1.1", upstream: "http://172.30.0.3:8081/artifactory/webapp/", host: "ho-srvt-uat-node01.corp.saigonbpo.vn", referrer: "http://ho-srvt-uat-node01.corp.saigonbpo.vn/artifactory/webapp/"
2019/08/14 04:23:30 [error] 104#104: *1 connect() failed (111: Connection refused) while connecting to upstream, client: 10.1.20.68, server: ~(?<repo>.+)\.artifactory, request: "GET /artifactory/webapp/ HTTP/1.1", upstream: "http://172.30.0.4:8082/artifactory/webapp/", host: "ho-srvt-uat-node01.corp.saigonbpo.vn", referrer: "http://ho-srvt-uat-node01.corp.saigonbpo.vn/artifactory/webapp/"
2019/08/14 04:23:30 [warn] 104#104: *1 upstream server temporarily disabled while connecting to upstream, client: 10.1.20.68, server: ~(?<repo>.+)\.artifactory, request: "GET /artifactory/webapp/ HTTP/1.1", upstream: "http://172.30.0.4:8082/artifactory/webapp/", host: "ho-srvt-uat-node01.corp.saigonbpo.vn", referrer: "http://ho-srvt-uat-node01.corp.saigonbpo.vn/artifactory/webapp/"
2019/08/14 04:23:30 [error] 104#104: *1 open() "/usr/share/nginx/html/favicon.ico" failed (2: No such file or directory), client: 10.1.20.68, server: ~(?<repo>.+)\.artifactory, request: "GET /favicon.ico HTTP/1.1", host: "ho-srvt-uat-node01.corp.saigonbpo.vn", referrer: "http://ho-srvt-uat-node01.corp.saigonbpo.vn/artifactory/webapp/"
2019/08/14 04:26:11 [error] 104#104: *4 connect() failed (111: Connection refused) while connecting to upstream, client: 10.1.20.68, server: ~(?<repo>.+)\.artifactory, request: "GET /artifactory/webapp/ HTTP/1.1", upstream: "http://172.30.0.4:8082/artifactory/webapp/", host: "ho-srvt-uat-node01.corp.saigonbpo.vn", referrer: "http://ho-srvt-uat-node01.corp.saigonbpo.vn/artifactory/webapp/"
2019/08/14 04:26:11 [warn] 104#104: *4 upstream server temporarily disabled while connecting to upstream, client: 10.1.20.68, server: ~(?<repo>.+)\.artifactory, request: "GET /artifactory/webapp/ HTTP/1.1", upstream: "http://172.30.0.4:8082/artifactory/webapp/", host: "ho-srvt-uat-node01.corp.saigonbpo.vn", referrer: "http://ho-srvt-uat-node01.corp.saigonbpo.vn/artifactory/webapp/"
2019/08/14 04:26:38 [error] 104#104: *11 connect() failed (111: Connection refused) while connecting to upstream, client: 10.1.20.68, server: ~(?<repo>.+)\.artifactory, request: "POST /artifactory/ui/auth/changePassword?$suppress_toaster=true&prefix=changePassword HTTP/1.1", upstream: "http://172.30.0.4:8082/artifactory/ui/auth/changePassword?$suppress_toaster=true&prefix=changePassword", host: "ho-srvt-uat-node01.corp.saigonbpo.vn", referrer: "http://ho-srvt-uat-node01.corp.saigonbpo.vn/artifactory/webapp/"
2019/08/14 04:26:38 [warn] 104#104: *11 upstream server temporarily disabled while connecting to upstream, client: 10.1.20.68, server: ~(?<repo>.+)\.artifactory, request: "POST /artifactory/ui/auth/changePassword?$suppress_toaster=true&prefix=changePassword HTTP/1.1", upstream: "http://172.30.0.4:8082/artifactory/ui/auth/changePassword?$suppress_toaster=true&prefix=changePassword", host: "ho-srvt-uat-node01.corp.saigonbpo.vn", referrer: "http://ho-srvt-uat-node01.corp.saigonbpo.vn/artifactory/webapp/"
2019/08/14 04:30:33 [error] 104#104: *24 connect() failed (111: Connection refused) while connecting to upstream, client: 10.1.20.68, server: ~(?<repo>.+)\.artifactory, request: "POST /artifactory/ui/auth/changePassword?$suppress_toaster=true&prefix=changePassword HTTP/1.1", upstream: "http://172.30.0.4:8082/artifactory/ui/auth/changePassword?$suppress_toaster=true&prefix=changePassword", host: "ho-srvt-uat-node01.corp.saigonbpo.vn", referrer: "http://ho-srvt-uat-node01.corp.saigonbpo.vn/artifactory/webapp/"
2019/08/14 04:30:33 [warn] 104#104: *24 upstream server temporarily disabled while connecting to upstream, client: 10.1.20.68, server: ~(?<repo>.+)\.artifactory, request: "POST /artifactory/ui/auth/changePassword?$suppress_toaster=true&prefix=changePassword HTTP/1.1", upstream: "http://172.30.0.4:8082/artifactory/ui/auth/changePassword?$suppress_toaster=true&prefix=changePassword", host: "ho-srvt-uat-node01.corp.saigonbpo.vn", referrer: "http://ho-srvt-uat-node01.corp.saigonbpo.vn/artifactory/webapp/"
2019/08/14 04:30:51 [error] 104#104: *24 connect() failed (111: Connection refused) while connecting to upstream, client: 10.1.20.68, server: ~(?<repo>.+)\.artifactory, request: "POST /artifactory/ui/auth/changePassword?$suppress_toaster=true&prefix=changePassword HTTP/1.1", upstream: "http://172.30.0.4:8082/artifactory/ui/auth/changePassword?$suppress_toaster=true&prefix=changePassword", host: "ho-srvt-uat-node01.corp.saigonbpo.vn", referrer: "http://ho-srvt-uat-node01.corp.saigonbpo.vn/artifactory/webapp/"
2019/08/14 04:30:51 [warn] 104#104: *24 upstream server temporarily disabled while connecting to upstream, client: 10.1.20.68, server: ~(?<repo>.+)\.artifactory, request: "POST /artifactory/ui/auth/changePassword?$suppress_toaster=true&prefix=changePassword HTTP/1.1", upstream: "http://172.30.0.4:8082/artifactory/ui/auth/changePassword?$suppress_toaster=true&prefix=changePassword", host: "ho-srvt-uat-node01.corp.saigonbpo.vn", referrer: "http://ho-srvt-uat-node01.corp.saigonbpo.vn/artifactory/webapp/"
2019/08/14 04:31:07 [error] 104#104: *45 connect() failed (111: Connection refused) while connecting to upstream, client: 10.1.20.68, server: ~(?<repo>.+)\.artifactory, request: "GET /artifactory/ui/home/widget/info?$no_spinner=true HTTP/1.1", upstream: "http://172.30.0.4:8082/artifactory/ui/home/widget/info?$no_spinner=true", host: "ho-srvt-uat-node01.corp.saigonbpo.vn", referrer: "http://ho-srvt-uat-node01.corp.saigonbpo.vn/artifactory/webapp/"
2019/08/14 04:31:07 [warn] 104#104: *45 upstream server temporarily disabled while connecting to upstream, client: 10.1.20.68, server: ~(?<repo>.+)\.artifactory, request: "GET /artifactory/ui/home/widget/info?$no_spinner=true HTTP/1.1", upstream: "http://172.30.0.4:8082/artifactory/ui/home/widget/info?$no_spinner=true", host: "ho-srvt-uat-node01.corp.saigonbpo.vn", referrer: "http://ho-srvt-uat-node01.corp.saigonbpo.vn/artifactory/webapp/"
2019/08/14 04:31:18 [error] 104#104: *45 connect() failed (111: Connection refused) while connecting to upstream, client: 10.1.20.68, server: ~(?<repo>.+)\.artifactory, request: "GET /artifactory/ui/home/widget/artifactCount?$no_spinner=true HTTP/1.1", upstream: "http://172.30.0.4:8082/artifactory/ui/home/widget/artifactCount?$no_spinner=true", host: "ho-srvt-uat-node01.corp.saigonbpo.vn", referrer: "http://ho-srvt-uat-node01.corp.saigonbpo.vn/artifactory/webapp/"
2019/08/14 04:31:18 [warn] 104#104: *45 upstream server temporarily disabled while connecting to upstream, client: 10.1.20.68, server: ~(?<repo>.+)\.artifactory, request: "GET /artifactory/ui/home/widget/artifactCount?$no_spinner=true HTTP/1.1", upstream: "http://172.30.0.4:8082/artifactory/ui/home/widget/artifactCount?$no_spinner=true", host: "ho-srvt-uat-node01.corp.saigonbpo.vn", referrer: "http://ho-srvt-uat-node01.corp.saigonbpo.vn/artifactory/webapp/"
2019/08/14 04:31:31 [error] 104#104: *54 connect() failed (111: Connection refused) while connecting to upstream, client: 10.1.20.68, server: ~(?<repo>.+)\.artifactory, request: "POST /artifactory/ui/treebrowser/tabsAndActions HTTP/1.1", upstream: "http://172.30.0.4:8082/artifactory/ui/treebrowser/tabsAndActions", host: "ho-srvt-uat-node01.corp.saigonbpo.vn", referrer: "http://ho-srvt-uat-node01.corp.saigonbpo.vn/artifactory/webapp/"
2019/08/14 04:31:31 [warn] 104#104: *54 upstream server temporarily disabled while connecting to upstream, client: 10.1.20.68, server: ~(?<repo>.+)\.artifactory, request: "POST /artifactory/ui/treebrowser/tabsAndActions HTTP/1.1", upstream: "http://172.30.0.4:8082/artifactory/ui/treebrowser/tabsAndActions", host: "ho-srvt-uat-node01.corp.saigonbpo.vn", referrer: "http://ho-srvt-uat-node01.corp.saigonbpo.vn/artifactory/webapp/"
2019/08/14 04:31:49 [error] 104#104: *54 connect() failed (111: Connection refused) while connecting to upstream, client: 10.1.20.68, server: ~(?<repo>.+)\.artifactory, request: "POST /artifactory/ui/artifactactions/download HTTP/1.1", upstream: "http://172.30.0.4:8082/artifactory/ui/artifactactions/download", host: "ho-srvt-uat-node01.corp.saigonbpo.vn", referrer: "http://ho-srvt-uat-node01.corp.saigonbpo.vn/artifactory/webapp/"
2019/08/14 04:31:49 [warn] 104#104: *54 upstream server temporarily disabled while connecting to upstream, client: 10.1.20.68, server: ~(?<repo>.+)\.artifactory, request: "POST /artifactory/ui/artifactactions/download HTTP/1.1", upstream: "http://172.30.0.4:8082/artifactory/ui/artifactactions/download", host: "ho-srvt-uat-node01.corp.saigonbpo.vn", referrer: "http://ho-srvt-uat-node01.corp.saigonbpo.vn/artifactory/webapp/"
2019/08/14 04:32:10 [error] 104#104: *72 connect() failed (111: Connection refused) while connecting to upstream, client: 10.1.20.68, server: ~(?<repo>.+)\.artifactory, request: "GET /artifactory/ui/admin/repositories/virtual/info HTTP/1.1", upstream: "http://172.30.0.4:8082/artifactory/ui/admin/repositories/virtual/info", host: "ho-srvt-uat-node01.corp.saigonbpo.vn", referrer: "http://ho-srvt-uat-node01.corp.saigonbpo.vn/artifactory/webapp/"
2019/08/14 04:32:10 [warn] 104#104: *72 upstream server temporarily disabled while connecting to upstream, client: 10.1.20.68, server: ~(?<repo>.+)\.artifactory, request: "GET /artifactory/ui/admin/repositories/virtual/info HTTP/1.1", upstream: "http://172.30.0.4:8082/artifactory/ui/admin/repositories/virtual/info", host: "ho-srvt-uat-node01.corp.saigonbpo.vn", referrer: "http://ho-srvt-uat-node01.corp.saigonbpo.vn/artifactory/webapp/"
2019/08/14 04:32:25 [error] 104#104: *24 connect() failed (111: Connection refused) while connecting to upstream, client: 10.1.20.68, server: ~(?<repo>.+)\.artifactory, request: "POST /artifactory/ui/artifactactions/download HTTP/1.1", upstream: "http://172.30.0.4:8082/artifactory/ui/artifactactions/download", host: "ho-srvt-uat-node01.corp.saigonbpo.vn", referrer: "http://ho-srvt-uat-node01.corp.saigonbpo.vn/artifactory/webapp/"
2019/08/14 04:32:25 [warn] 104#104: *24 upstream server temporarily disabled while connecting to upstream, client: 10.1.20.68, server: ~(?<repo>.+)\.artifactory, request: "POST /artifactory/ui/artifactactions/download HTTP/1.1", upstream: "http://172.30.0.4:8082/artifactory/ui/artifactactions/download", host: "ho-srvt-uat-node01.corp.saigonbpo.vn", referrer: "http://ho-srvt-uat-node01.corp.saigonbpo.vn/artifactory/webapp/"
2019/08/14 04:32:48 [error] 104#104: *45 connect() failed (111: Connection refused) while connecting to upstream, client: 10.1.20.68, server: ~(?<repo>.+)\.artifactory, request: "GET /artifactory/webapp/fonts/OpenSans/OpenSans-LightItalic/OpenSans-LightItalic-webfont.2299.woff HTTP/1.1", upstream: "http://172.30.0.4:8082/artifactory/webapp/fonts/OpenSans/OpenSans-LightItalic/OpenSans-LightItalic-webfont.2299.woff", host: "ho-srvt-uat-node01.corp.saigonbpo.vn", referrer: "http://ho-srvt-uat-node01.corp.saigonbpo.vn/artifactory/webapp/css/vendorStyles.2299.css"
2019/08/14 04:32:48 [warn] 104#104: *45 upstream server temporarily disabled while connecting to upstream, client: 10.1.20.68, server: ~(?<repo>.+)\.artifactory, request: "GET /artifactory/webapp/fonts/OpenSans/OpenSans-LightItalic/OpenSans-LightItalic-webfont.2299.woff HTTP/1.1", upstream: "http://172.30.0.4:8082/artifactory/webapp/fonts/OpenSans/OpenSans-LightItalic/OpenSans-LightItalic-webfont.2299.woff", host: "ho-srvt-uat-node01.corp.saigonbpo.vn", referrer: "http://ho-srvt-uat-node01.corp.saigonbpo.vn/artifactory/webapp/css/vendorStyles.2299.css"
2019/08/14 06:39:33 [error] 104#104: *142 connect() failed (111: Connection refused) while connecting to upstream, client: 10.1.20.68, server: ~(?<repo>.+)\.artifactory, request: "POST /artifactory/ui/auth/loginRelatedData HTTP/1.1", upstream: "http://172.30.0.4:8082/artifactory/ui/auth/loginRelatedData", host: "ho-srvt-uat-node01.corp.saigonbpo.vn", referrer: "http://ho-srvt-uat-node01.corp.saigonbpo.vn/artifactory/webapp/"
2019/08/14 06:39:33 [warn] 104#104: *142 upstream server temporarily disabled while connecting to upstream, client: 10.1.20.68, server: ~(?<repo>.+)\.artifactory, request: "POST /artifactory/ui/auth/loginRelatedData HTTP/1.1", upstream: "http://172.30.0.4:8082/artifactory/ui/auth/loginRelatedData", host: "ho-srvt-uat-node01.corp.saigonbpo.vn", referrer: "http://ho-srvt-uat-node01.corp.saigonbpo.vn/artifactory/webapp/"
2019/08/14 06:39:44 [error] 104#104: *142 connect() failed (111: Connection refused) while connecting to upstream, client: 10.1.20.68, server: ~(?<repo>.+)\.artifactory, request: "POST /artifactory/ui/auth/loginRelatedData HTTP/1.1", upstream: "http://172.30.0.4:8082/artifactory/ui/auth/loginRelatedData", host: "ho-srvt-uat-node01.corp.saigonbpo.vn", referrer: "http://ho-srvt-uat-node01.corp.saigonbpo.vn/artifactory/webapp/"
2019/08/14 06:39:44 [warn] 104#104: *142 upstream server temporarily disabled while connecting to upstream, client: 10.1.20.68, server: ~(?<repo>.+)\.artifactory, request: "POST /artifactory/ui/auth/loginRelatedData HTTP/1.1", upstream: "http://172.30.0.4:8082/artifactory/ui/auth/loginRelatedData", host: "ho-srvt-uat-node01.corp.saigonbpo.vn", referrer: "http://ho-srvt-uat-node01.corp.saigonbpo.vn/artifactory/webapp/"
2019/08/14 06:39:58 [error] 104#104: *142 connect() failed (111: Connection refused) while connecting to upstream, client: 10.1.20.68, server: ~(?<repo>.+)\.artifactory, request: "GET /artifactory/ui/home/widget/artifactCount?$no_spinner=true HTTP/1.1", upstream: "http://172.30.0.4:8082/artifactory/ui/home/widget/artifactCount?$no_spinner=true", host: "ho-srvt-uat-node01.corp.saigonbpo.vn", referrer: "http://ho-srvt-uat-node01.corp.saigonbpo.vn/artifactory/webapp/"
2019/08/14 06:39:58 [warn] 104#104: *142 upstream server temporarily disabled while connecting to upstream, client: 10.1.20.68, server: ~(?<repo>.+)\.artifactory, request: "GET /artifactory/ui/home/widget/artifactCount?$no_spinner=true HTTP/1.1", upstream: "http://172.30.0.4:8082/artifactory/ui/home/widget/artifactCount?$no_spinner=true", host: "ho-srvt-uat-node01.corp.saigonbpo.vn", referrer: "http://ho-srvt-uat-node01.corp.saigonbpo.vn/artifactory/webapp/"
2019/08/14 06:40:28 [error] 104#104: *175 connect() failed (111: Connection refused) while connecting to upstream, client: 10.1.20.68, server: ~(?<repo>.+)\.artifactory, request: "GET /artifactory/ui/global/replications/config HTTP/1.1", upstream: "http://172.30.0.4:8082/artifactory/ui/global/replications/config", host: "ho-srvt-uat-node01.corp.saigonbpo.vn", referrer: "http://ho-srvt-uat-node01.corp.saigonbpo.vn/artifactory/webapp/"
2019/08/14 06:40:28 [warn] 104#104: *175 upstream server temporarily disabled while connecting to upstream, client: 10.1.20.68, server: ~(?<repo>.+)\.artifactory, request: "GET /artifactory/ui/global/replications/config HTTP/1.1", upstream: "http://172.30.0.4:8082/artifactory/ui/global/replications/config", host: "ho-srvt-uat-node01.corp.saigonbpo.vn", referrer: "http://ho-srvt-uat-node01.corp.saigonbpo.vn/artifactory/webapp/"
2019/08/14 06:41:44 [error] 104#104: *196 connect() failed (111: Connection refused) while connecting to upstream, client: 10.1.20.68, server: ~(?<repo>.+)\.artifactory, request: "GET /artifactory/ui/binary/providers/info HTTP/1.1", upstream: "http://172.30.0.4:8082/artifactory/ui/binary/providers/info", host: "ho-srvt-uat-node01.corp.saigonbpo.vn", referrer: "http://ho-srvt-uat-node01.corp.saigonbpo.vn/artifactory/webapp/"
2019/08/14 06:41:44 [warn] 104#104: *196 upstream server temporarily disabled while connecting to upstream, client: 10.1.20.68, server: ~(?<repo>.+)\.artifactory, request: "GET /artifactory/ui/binary/providers/info HTTP/1.1", upstream: "http://172.30.0.4:8082/artifactory/ui/binary/providers/info", host: "ho-srvt-uat-node01.corp.saigonbpo.vn", referrer: "http://ho-srvt-uat-node01.corp.saigonbpo.vn/artifactory/webapp/"
2019/08/14 06:41:58 [error] 104#104: *196 connect() failed (111: Connection refused) while connecting to upstream, client: 10.1.20.68, server: ~(?<repo>.+)\.artifactory, request: "GET /artifactory/ui/crontime?cron=0+12+5+*+*+%3F HTTP/1.1", upstream: "http://172.30.0.4:8082/artifactory/ui/crontime?cron=0+12+5+*+*+%3F", host: "ho-srvt-uat-node01.corp.saigonbpo.vn", referrer: "http://ho-srvt-uat-node01.corp.saigonbpo.vn/artifactory/webapp/"
2019/08/14 06:41:58 [warn] 104#104: *196 upstream server temporarily disabled while connecting to upstream, client: 10.1.20.68, server: ~(?<repo>.+)\.artifactory, request: "GET /artifactory/ui/crontime?cron=0+12+5+*+*+%3F HTTP/1.1", upstream: "http://172.30.0.4:8082/artifactory/ui/crontime?cron=0+12+5+*+*+%3F", host: "ho-srvt-uat-node01.corp.saigonbpo.vn", referrer: "http://ho-srvt-uat-node01.corp.saigonbpo.vn/artifactory/webapp/"
2019/08/14 06:42:33 [error] 104#104: *196 connect() failed (111: Connection refused) while connecting to upstream, client: 10.1.20.68, server: ~(?<repo>.+)\.artifactory, request: "GET /artifactory/ui/validations/dateformat?dateformat=dd-MM-yy+HH:mm:ss+z HTTP/1.1", upstream: "http://172.30.0.4:8082/artifactory/ui/validations/dateformat?dateformat=dd-MM-yy+HH:mm:ss+z", host: "ho-srvt-uat-node01.corp.saigonbpo.vn", referrer: "http://ho-srvt-uat-node01.corp.saigonbpo.vn/artifactory/webapp/"
2019/08/14 06:42:33 [warn] 104#104: *196 upstream server temporarily disabled while connecting to upstream, client: 10.1.20.68, server: ~(?<repo>.+)\.artifactory, request: "GET /artifactory/ui/validations/dateformat?dateformat=dd-MM-yy+HH:mm:ss+z HTTP/1.1", upstream: "http://172.30.0.4:8082/artifactory/ui/validations/dateformat?dateformat=dd-MM-yy+HH:mm:ss+z", host: "ho-srvt-uat-node01.corp.saigonbpo.vn", referrer: "http://ho-srvt-uat-node01.corp.saigonbpo.vn/artifactory/webapp/"
2019/08/14 06:49:42 [error] 104#104: *229 connect() failed (111: Connection refused) while connecting to upstream, client: 10.1.20.68, server: ~(?<repo>.+)\.artifactory, request: "GET /artifactory/ui/browsefilesystem?path=%2F HTTP/1.1", upstream: "http://172.30.0.4:8082/artifactory/ui/browsefilesystem?path=%2F", host: "ho-srvt-uat-node01.corp.saigonbpo.vn", referrer: "http://ho-srvt-uat-node01.corp.saigonbpo.vn/artifactory/webapp/"
2019/08/14 06:49:42 [warn] 104#104: *229 upstream server temporarily disabled while connecting to upstream, client: 10.1.20.68, server: ~(?<repo>.+)\.artifactory, request: "GET /artifactory/ui/browsefilesystem?path=%2F HTTP/1.1", upstream: "http://172.30.0.4:8082/artifactory/ui/browsefilesystem?path=%2F", host: "ho-srvt-uat-node01.corp.saigonbpo.vn", referrer: "http://ho-srvt-uat-node01.corp.saigonbpo.vn/artifactory/webapp/"
2019/08/14 06:49:56 [error] 104#104: *226 connect() failed (111: Connection refused) while connecting to upstream, client: 10.1.20.68, server: ~(?<repo>.+)\.artifactory, request: "GET /artifactory/ui/crontime?cron=0+12+5+*+*+%3F HTTP/1.1", upstream: "http://172.30.0.4:8082/artifactory/ui/crontime?cron=0+12+5+*+*+%3F", host: "ho-srvt-uat-node01.corp.saigonbpo.vn", referrer: "http://ho-srvt-uat-node01.corp.saigonbpo.vn/artifactory/webapp/"
2019/08/14 06:49:56 [warn] 104#104: *226 upstream server temporarily disabled while connecting to upstream, client: 10.1.20.68, server: ~(?<repo>.+)\.artifactory, request: "GET /artifactory/ui/crontime?cron=0+12+5+*+*+%3F HTTP/1.1", upstream: "http://172.30.0.4:8082/artifactory/ui/crontime?cron=0+12+5+*+*+%3F", host: "ho-srvt-uat-node01.corp.saigonbpo.vn", referrer: "http://ho-srvt-uat-node01.corp.saigonbpo.vn/artifactory/webapp/"
2019/08/14 06:50:29 [error] 104#104: *229 connect() failed (111: Connection refused) while connecting to upstream, client: 10.1.20.68, server: ~(?<repo>.+)\.artifactory, request: "GET /artifactory/ui/systemlogs/logData?$no_spinner=true&fileSize=2154289&id=artifactory.log HTTP/1.1", upstream: "http://172.30.0.4:8082/artifactory/ui/systemlogs/logData?$no_spinner=true&fileSize=2154289&id=artifactory.log", host: "ho-srvt-uat-node01.corp.saigonbpo.vn", referrer: "http://ho-srvt-uat-node01.corp.saigonbpo.vn/artifactory/webapp/"
2019/08/14 06:50:29 [warn] 104#104: *229 upstream server temporarily disabled while connecting to upstream, client: 10.1.20.68, server: ~(?<repo>.+)\.artifactory, request: "GET /artifactory/ui/systemlogs/logData?$no_spinner=true&fileSize=2154289&id=artifactory.log HTTP/1.1", upstream: "http://172.30.0.4:8082/artifactory/ui/systemlogs/logData?$no_spinner=true&fileSize=2154289&id=artifactory.log", host: "ho-srvt-uat-node01.corp.saigonbpo.vn", referrer: "http://ho-srvt-uat-node01.corp.saigonbpo.vn/artifactory/webapp/"
2019/08/14 06:51:11 [error] 104#104: *240 connect() failed (111: Connection refused) while connecting to upstream, client: 10.1.20.68, server: ~(?<repo>.+)\.artifactory, request: "GET /artifactory/ui/systemlogs/logData?$no_spinner=true&fileSize=2163449&id=artifactory.log HTTP/1.1", upstream: "http://172.30.0.4:8082/artifactory/ui/systemlogs/logData?$no_spinner=true&fileSize=2163449&id=artifactory.log", host: "ho-srvt-uat-node01.corp.saigonbpo.vn", referrer: "http://ho-srvt-uat-node01.corp.saigonbpo.vn/artifactory/webapp/"
2019/08/14 06:51:11 [warn] 104#104: *240 upstream server temporarily disabled while connecting to upstream, client: 10.1.20.68, server: ~(?<repo>.+)\.artifactory, request: "GET /artifactory/ui/systemlogs/logData?$no_spinner=true&fileSize=2163449&id=artifactory.log HTTP/1.1", upstream: "http://172.30.0.4:8082/artifactory/ui/systemlogs/logData?$no_spinner=true&fileSize=2163449&id=artifactory.log", host: "ho-srvt-uat-node01.corp.saigonbpo.vn", referrer: "http://ho-srvt-uat-node01.corp.saigonbpo.vn/artifactory/webapp/"
2019/08/14 07:36:33 [alert] 1#1: unlink() "/var/run/nginx.pid" failed (13: Permission denied)
2019/08/14 07:37:05 [emerg] 1#1: BIO_new_file("/etc/nginx/ssl/example.pem") failed (SSL: error:02001002:system library:fopen:No such file or directory:fopen('/etc/nginx/ssl/example.pem','r') error:2006D080:BIO routines:BIO_new_file:no such file)
2019/08/14 07:37:07 [emerg] 1#1: BIO_new_file("/etc/nginx/ssl/example.pem") failed (SSL: error:02001002:system library:fopen:No such file or directory:fopen('/etc/nginx/ssl/example.pem','r') error:2006D080:BIO routines:BIO_new_file:no such file)
2019/08/14 07:37:10 [emerg] 1#1: BIO_new_file("/etc/nginx/ssl/example.pem") failed (SSL: error:02001002:system library:fopen:No such file or directory:fopen('/etc/nginx/ssl/example.pem','r') error:2006D080:BIO routines:BIO_new_file:no such file)
2019/08/14 07:37:12 [emerg] 1#1: BIO_new_file("/etc/nginx/ssl/example.pem") failed (SSL: error:02001002:system library:fopen:No such file or directory:fopen('/etc/nginx/ssl/example.pem','r') error:2006D080:BIO routines:BIO_new_file:no such file)
2019/08/14 07:37:15 [emerg] 1#1: BIO_new_file("/etc/nginx/ssl/example.pem") failed (SSL: error:02001002:system library:fopen:No such file or directory:fopen('/etc/nginx/ssl/example.pem','r') error:2006D080:BIO routines:BIO_new_file:no such file)
2019/08/14 07:37:19 [emerg] 1#1: BIO_new_file("/etc/nginx/ssl/example.pem") failed (SSL: error:02001002:system library:fopen:No such file or directory:fopen('/etc/nginx/ssl/example.pem','r') error:2006D080:BIO routines:BIO_new_file:no such file)
2019/08/14 07:37:24 [emerg] 1#1: BIO_new_file("/etc/nginx/ssl/example.pem") failed (SSL: error:02001002:system library:fopen:No such file or directory:fopen('/etc/nginx/ssl/example.pem','r') error:2006D080:BIO routines:BIO_new_file:no such file)
2019/08/14 07:37:32 [emerg] 1#1: BIO_new_file("/etc/nginx/ssl/example.pem") failed (SSL: error:02001002:system library:fopen:No such file or directory:fopen('/etc/nginx/ssl/example.pem','r') error:2006D080:BIO routines:BIO_new_file:no such file)
2019/08/14 07:37:46 [emerg] 1#1: BIO_new_file("/etc/nginx/ssl/example.pem") failed (SSL: error:02001002:system library:fopen:No such file or directory:fopen('/etc/nginx/ssl/example.pem','r') error:2006D080:BIO routines:BIO_new_file:no such file)
2019/08/14 07:38:13 [emerg] 1#1: BIO_new_file("/etc/nginx/ssl/example.pem") failed (SSL: error:02001002:system library:fopen:No such file or directory:fopen('/etc/nginx/ssl/example.pem','r') error:2006D080:BIO routines:BIO_new_file:no such file)
2019/08/14 07:39:05 [emerg] 1#1: BIO_new_file("/etc/nginx/ssl/example.pem") failed (SSL: error:02001002:system library:fopen:No such file or directory:fopen('/etc/nginx/ssl/example.pem','r') error:2006D080:BIO routines:BIO_new_file:no such file)
2019/08/14 07:40:07 [emerg] 1#1: BIO_new_file("/etc/nginx/ssl/example.pem") failed (SSL: error:02001002:system library:fopen:No such file or directory:fopen('/etc/nginx/ssl/example.pem','r') error:2006D080:BIO routines:BIO_new_file:no such file)
2019/08/14 07:41:08 [emerg] 1#1: BIO_new_file("/etc/nginx/ssl/example.pem") failed (SSL: error:02001002:system library:fopen:No such file or directory:fopen('/etc/nginx/ssl/example.pem','r') error:2006D080:BIO routines:BIO_new_file:no such file)
2019/08/14 07:48:33 [alert] 1#1: unlink() "/var/run/nginx.pid" failed (13: Permission denied)
2019/08/14 07:49:06 [error] 112#112: *1 connect() failed (111: Connection refused) while connecting to upstream, client: 10.1.20.68, server: ~(?<repo>.+)\.artifactory, request: "GET /artifactory/webapp/ HTTP/1.1", upstream: "http://192.168.0.4:8082/artifactory/webapp/", host: "ho-srvt-uat-node01.corp.saigonbpo.vn"
2019/08/14 07:49:06 [warn] 112#112: *1 upstream server temporarily disabled while connecting to upstream, client: 10.1.20.68, server: ~(?<repo>.+)\.artifactory, request: "GET /artifactory/webapp/ HTTP/1.1", upstream: "http://192.168.0.4:8082/artifactory/webapp/", host: "ho-srvt-uat-node01.corp.saigonbpo.vn"
2019/08/14 07:50:23 [error] 112#112: *27 connect() failed (111: Connection refused) while connecting to upstream, client: 10.1.20.68, server: ~(?<repo>.+)\.artifactory, request: "GET /artifactory/webapp/ HTTP/1.1", upstream: "http://192.168.0.4:8082/artifactory/webapp/", host: "ho-srvt-uat-node01.corp.saigonbpo.vn"
2019/08/14 07:50:23 [warn] 112#112: *27 upstream server temporarily disabled while connecting to upstream, client: 10.1.20.68, server: ~(?<repo>.+)\.artifactory, request: "GET /artifactory/webapp/ HTTP/1.1", upstream: "http://192.168.0.4:8082/artifactory/webapp/", host: "ho-srvt-uat-node01.corp.saigonbpo.vn"
2019/08/14 07:50:38 [alert] 1#1: unlink() "/var/run/nginx.pid" failed (13: Permission denied)
2019/08/14 07:52:24 [error] 112#112: *1 connect() failed (111: Connection refused) while connecting to upstream, client: 10.1.20.68, server: ~(?<repo>.+)\.artifactory, request: "GET /artifactory/webapp/ HTTP/1.1", upstream: "http://192.168.16.4:8082/artifactory/webapp/", host: "ho-srvt-uat-node01.corp.saigonbpo.vn"
2019/08/14 07:52:24 [warn] 112#112: *1 upstream server temporarily disabled while connecting to upstream, client: 10.1.20.68, server: ~(?<repo>.+)\.artifactory, request: "GET /artifactory/webapp/ HTTP/1.1", upstream: "http://192.168.16.4:8082/artifactory/webapp/", host: "ho-srvt-uat-node01.corp.saigonbpo.vn"
2019/08/14 07:57:02 [alert] 1#1: unlink() "/var/run/nginx.pid" failed (13: Permission denied)
2019/08/14 07:59:50 [error] 114#114: *1 connect() failed (111: Connection refused) while connecting to upstream, client: 10.1.20.68, server: ~(?<repo>.+)\.artifactory, request: "GET /artifactory/webapp/ HTTP/1.1", upstream: "http://192.168.32.4:8082/artifactory/webapp/", host: "ho-srvt-uat-node01.corp.saigonbpo.vn"
2019/08/14 07:59:50 [warn] 114#114: *1 upstream server temporarily disabled while connecting to upstream, client: 10.1.20.68, server: ~(?<repo>.+)\.artifactory, request: "GET /artifactory/webapp/ HTTP/1.1", upstream: "http://192.168.32.4:8082/artifactory/webapp/", host: "ho-srvt-uat-node01.corp.saigonbpo.vn"
2019/08/14 08:00:31 [alert] 1#1: unlink() "/var/run/nginx.pid" failed (13: Permission denied)
2019/08/14 08:01:49 [warn] 113#113: *1 upstream server temporarily disabled while reading response header from upstream, client: 10.1.20.68, server: ~(?<repo>.+)\.artifactory, request: "GET /artifactory/webapp/ HTTP/1.1", upstream: "http://192.168.48.3:8081/artifactory/webapp/", host: "ho-srvt-uat-node01.corp.saigonbpo.vn"
2019/08/14 08:01:49 [error] 113#113: *1 connect() failed (111: Connection refused) while connecting to upstream, client: 10.1.20.68, server: ~(?<repo>.+)\.artifactory, request: "GET /artifactory/webapp/ HTTP/1.1", upstream: "http://192.168.48.4:8082/artifactory/webapp/", host: "ho-srvt-uat-node01.corp.saigonbpo.vn"
2019/08/14 08:01:49 [warn] 113#113: *1 upstream server temporarily disabled while connecting to upstream, client: 10.1.20.68, server: ~(?<repo>.+)\.artifactory, request: "GET /artifactory/webapp/ HTTP/1.1", upstream: "http://192.168.48.4:8082/artifactory/webapp/", host: "ho-srvt-uat-node01.corp.saigonbpo.vn"
2019/08/14 08:01:50 [error] 113#113: *1 no live upstreams while connecting to upstream, client: 10.1.20.68, server: ~(?<repo>.+)\.artifactory, request: "GET /artifactory/webapp/ HTTP/1.1", upstream: "http://artifactory/artifactory/webapp/", host: "ho-srvt-uat-node01.corp.saigonbpo.vn"
2019/08/14 08:01:50 [error] 113#113: *1 no live upstreams while connecting to upstream, client: 10.1.20.68, server: ~(?<repo>.+)\.artifactory, request: "GET /artifactory/webapp/ HTTP/1.1", upstream: "http://artifactory/artifactory/webapp/", host: "ho-srvt-uat-node01.corp.saigonbpo.vn"
2019/08/14 08:01:51 [error] 113#113: *1 no live upstreams while connecting to upstream, client: 10.1.20.68, server: ~(?<repo>.+)\.artifactory, request: "GET /artifactory/webapp/ HTTP/1.1", upstream: "http://artifactory/artifactory/webapp/", host: "ho-srvt-uat-node01.corp.saigonbpo.vn"
2019/08/14 08:01:53 [error] 113#113: *1 no live upstreams while connecting to upstream, client: 10.1.20.68, server: ~(?<repo>.+)\.artifactory, request: "GET /artifactory/webapp/ HTTP/1.1", upstream: "http://artifactory/artifactory/webapp/", host: "ho-srvt-uat-node01.corp.saigonbpo.vn"
2019/08/14 08:01:54 [error] 113#113: *4 no live upstreams while connecting to upstream, client: 10.1.20.68, server: ~(?<repo>.+)\.artifactory, request: "GET /artifactory/webapp/ HTTP/1.1", upstream: "http://artifactory/artifactory/webapp/", host: "ho-srvt-uat-node01.corp.saigonbpo.vn"
2019/08/14 08:01:57 [error] 113#113: *4 no live upstreams while connecting to upstream, client: 10.1.20.68, server: ~(?<repo>.+)\.artifactory, request: "GET /artifactory/webapp/ HTTP/1.1", upstream: "http://artifactory/artifactory/webapp/", host: "ho-srvt-uat-node01.corp.saigonbpo.vn"
2019/08/14 08:02:11 [error] 113#113: *4 connect() failed (111: Connection refused) while connecting to upstream, client: 10.1.20.68, server: ~(?<repo>.+)\.artifactory, request: "GET /artifactory/webapp/ HTTP/1.1", upstream: "http://192.168.48.4:8082/artifactory/webapp/", host: "ho-srvt-uat-node01.corp.saigonbpo.vn"
2019/08/14 08:02:11 [warn] 113#113: *4 upstream server temporarily disabled while connecting to upstream, client: 10.1.20.68, server: ~(?<repo>.+)\.artifactory, request: "GET /artifactory/webapp/ HTTP/1.1", upstream: "http://192.168.48.4:8082/artifactory/webapp/", host: "ho-srvt-uat-node01.corp.saigonbpo.vn"
2019/08/14 08:02:13 [warn] 113#113: *4 upstream server temporarily disabled while reading response header from upstream, client: 10.1.20.68, server: ~(?<repo>.+)\.artifactory, request: "GET /artifactory/webapp/ HTTP/1.1", upstream: "http://192.168.48.3:8081/artifactory/webapp/", host: "ho-srvt-uat-node01.corp.saigonbpo.vn"
2019/08/14 08:02:13 [error] 113#113: *4 no live upstreams while connecting to upstream, client: 10.1.20.68, server: ~(?<repo>.+)\.artifactory, request: "GET /artifactory/webapp/ HTTP/1.1", upstream: "http://artifactory/artifactory/webapp/", host: "ho-srvt-uat-node01.corp.saigonbpo.vn"
2019/08/14 08:02:13 [error] 113#113: *4 no live upstreams while connecting to upstream, client: 10.1.20.68, server: ~(?<repo>.+)\.artifactory, request: "GET /artifactory/webapp/ HTTP/1.1", upstream: "http://artifactory/artifactory/webapp/", host: "ho-srvt-uat-node01.corp.saigonbpo.vn"
2019/08/14 08:02:13 [error] 113#113: *4 no live upstreams while connecting to upstream, client: 10.1.20.68, server: ~(?<repo>.+)\.artifactory, request: "GET /artifactory/webapp/ HTTP/1.1", upstream: "http://artifactory/artifactory/webapp/", host: "ho-srvt-uat-node01.corp.saigonbpo.vn"
2019/08/14 08:02:13 [error] 113#113: *4 no live upstreams while connecting to upstream, client: 10.1.20.68, server: ~(?<repo>.+)\.artifactory, request: "GET /artifactory/webapp/ HTTP/1.1", upstream: "http://artifactory/artifactory/webapp/", host: "ho-srvt-uat-node01.corp.saigonbpo.vn"
2019/08/14 08:04:35 [alert] 1#1: unlink() "/var/run/nginx.pid" failed (13: Permission denied)
2019/08/14 08:06:00 [warn] 112#112: *1 upstream server temporarily disabled while reading response header from upstream, client: 10.1.20.68, server: ~(?<repo>.+)\.artifactory, request: "GET /artifactory/webapp/ HTTP/1.1", upstream: "http://192.168.64.3:8081/artifactory/webapp/", host: "ho-srvt-uat-node01.corp.saigonbpo.vn"
2019/08/14 08:06:04 [warn] 112#112: *1 upstream server temporarily disabled while reading response header from upstream, client: 10.1.20.68, server: ~(?<repo>.+)\.artifactory, request: "GET /artifactory/webapp/ HTTP/1.1", upstream: "http://192.168.64.4:8081/artifactory/webapp/", host: "ho-srvt-uat-node01.corp.saigonbpo.vn", referrer: "http://ho-srvt-uat-node01.corp.saigonbpo.vn/artifactory/webapp/"
2019/08/14 08:06:04 [error] 112#112: *1 no live upstreams while connecting to upstream, client: 10.1.20.68, server: ~(?<repo>.+)\.artifactory, request: "GET /artifactory/webapp/ HTTP/1.1", upstream: "http://artifactory/artifactory/webapp/", host: "ho-srvt-uat-node01.corp.saigonbpo.vn", referrer: "http://ho-srvt-uat-node01.corp.saigonbpo.vn/artifactory/webapp/"
2019/08/14 08:06:06 [error] 112#112: *1 no live upstreams while connecting to upstream, client: 10.1.20.68, server: ~(?<repo>.+)\.artifactory, request: "GET /artifactory/webapp/ HTTP/1.1", upstream: "http://artifactory/artifactory/webapp/", host: "ho-srvt-uat-node01.corp.saigonbpo.vn", referrer: "http://ho-srvt-uat-node01.corp.saigonbpo.vn/artifactory/webapp/"
2019/08/14 08:06:08 [error] 112#112: *1 no live upstreams while connecting to upstream, client: 10.1.20.68, server: ~(?<repo>.+)\.artifactory, request: "GET /artifactory/webapp/ HTTP/1.1", upstream: "http://artifactory/artifactory/webapp/", host: "ho-srvt-uat-node01.corp.saigonbpo.vn", referrer: "http://ho-srvt-uat-node01.corp.saigonbpo.vn/artifactory/webapp/"
2019/08/14 08:06:10 [error] 112#112: *1 no live upstreams while connecting to upstream, client: 10.1.20.68, server: ~(?<repo>.+)\.artifactory, request: "GET /artifactory/webapp/ HTTP/1.1", upstream: "http://artifactory/artifactory/webapp/", host: "ho-srvt-uat-node01.corp.saigonbpo.vn", referrer: "http://ho-srvt-uat-node01.corp.saigonbpo.vn/artifactory/webapp/"
2019/08/14 08:06:12 [warn] 112#112: *1 upstream server temporarily disabled while reading response header from upstream, client: 10.1.20.68, server: ~(?<repo>.+)\.artifactory, request: "GET /artifactory/webapp/ HTTP/1.1", upstream: "http://192.168.64.3:8081/artifactory/webapp/", host: "ho-srvt-uat-node01.corp.saigonbpo.vn", referrer: "http://ho-srvt-uat-node01.corp.saigonbpo.vn/artifactory/webapp/"
2019/08/14 08:06:12 [error] 112#112: *1 no live upstreams while connecting to upstream, client: 10.1.20.68, server: ~(?<repo>.+)\.artifactory, request: "GET /artifactory/webapp/ HTTP/1.1", upstream: "http://artifactory/artifactory/webapp/", host: "ho-srvt-uat-node01.corp.saigonbpo.vn", referrer: "http://ho-srvt-uat-node01.corp.saigonbpo.vn/artifactory/webapp/"
2019/08/14 08:06:14 [error] 112#112: *1 no live upstreams while connecting to upstream, client: 10.1.20.68, server: ~(?<repo>.+)\.artifactory, request: "GET /artifactory/webapp/ HTTP/1.1", upstream: "http://artifactory/artifactory/webapp/", host: "ho-srvt-uat-node01.corp.saigonbpo.vn", referrer: "http://ho-srvt-uat-node01.corp.saigonbpo.vn/artifactory/webapp/"
2019/08/14 08:06:16 [warn] 112#112: *1 upstream server temporarily disabled while reading response header from upstream, client: 10.1.20.68, server: ~(?<repo>.+)\.artifactory, request: "GET /artifactory/webapp/ HTTP/1.1", upstream: "http://192.168.64.4:8081/artifactory/webapp/", host: "ho-srvt-uat-node01.corp.saigonbpo.vn", referrer: "http://ho-srvt-uat-node01.corp.saigonbpo.vn/artifactory/webapp/"
2019/08/14 08:06:16 [error] 112#112: *1 no live upstreams while connecting to upstream, client: 10.1.20.68, server: ~(?<repo>.+)\.artifactory, request: "GET /artifactory/webapp/ HTTP/1.1", upstream: "http://artifactory/artifactory/webapp/", host: "ho-srvt-uat-node01.corp.saigonbpo.vn", referrer: "http://ho-srvt-uat-node01.corp.saigonbpo.vn/artifactory/webapp/"
2019/08/14 08:06:18 [error] 112#112: *1 no live upstreams while connecting to upstream, client: 10.1.20.68, server: ~(?<repo>.+)\.artifactory, request: "GET /artifactory/webapp/ HTTP/1.1", upstream: "http://artifactory/artifactory/webapp/", host: "ho-srvt-uat-node01.corp.saigonbpo.vn", referrer: "http://ho-srvt-uat-node01.corp.saigonbpo.vn/artifactory/webapp/"
2019/08/14 08:06:20 [error] 112#112: *1 no live upstreams while connecting to upstream, client: 10.1.20.68, server: ~(?<repo>.+)\.artifactory, request: "GET /artifactory/webapp/ HTTP/1.1", upstream: "http://artifactory/artifactory/webapp/", host: "ho-srvt-uat-node01.corp.saigonbpo.vn", referrer: "http://ho-srvt-uat-node01.corp.saigonbpo.vn/artifactory/webapp/"
2019/08/14 08:06:22 [error] 112#112: *1 no live upstreams while connecting to upstream, client: 10.1.20.68, server: ~(?<repo>.+)\.artifactory, request: "GET /artifactory/webapp/ HTTP/1.1", upstream: "http://artifactory/artifactory/webapp/", host: "ho-srvt-uat-node01.corp.saigonbpo.vn", referrer: "http://ho-srvt-uat-node01.corp.saigonbpo.vn/artifactory/webapp/"
2019/08/14 08:06:24 [warn] 112#112: *1 upstream server temporarily disabled while reading response header from upstream, client: 10.1.20.68, server: ~(?<repo>.+)\.artifactory, request: "GET /artifactory/webapp/ HTTP/1.1", upstream: "http://192.168.64.3:8081/artifactory/webapp/", host: "ho-srvt-uat-node01.corp.saigonbpo.vn", referrer: "http://ho-srvt-uat-node01.corp.saigonbpo.vn/artifactory/webapp/"
2019/08/14 08:06:24 [error] 112#112: *1 no live upstreams while connecting to upstream, client: 10.1.20.68, server: ~(?<repo>.+)\.artifactory, request: "GET /artifactory/webapp/ HTTP/1.1", upstream: "http://artifactory/artifactory/webapp/", host: "ho-srvt-uat-node01.corp.saigonbpo.vn", referrer: "http://ho-srvt-uat-node01.corp.saigonbpo.vn/artifactory/webapp/"
2019/08/14 08:06:26 [error] 112#112: *1 no live upstreams while connecting to upstream, client: 10.1.20.68, server: ~(?<repo>.+)\.artifactory, request: "GET /artifactory/webapp/ HTTP/1.1", upstream: "http://artifactory/artifactory/webapp/", host: "ho-srvt-uat-node01.corp.saigonbpo.vn", referrer: "http://ho-srvt-uat-node01.corp.saigonbpo.vn/artifactory/webapp/"
2019/08/14 08:06:28 [warn] 112#112: *1 upstream server temporarily disabled while reading response header from upstream, client: 10.1.20.68, server: ~(?<repo>.+)\.artifactory, request: "GET /artifactory/webapp/ HTTP/1.1", upstream: "http://192.168.64.4:8081/artifactory/webapp/", host: "ho-srvt-uat-node01.corp.saigonbpo.vn", referrer: "http://ho-srvt-uat-node01.corp.saigonbpo.vn/artifactory/webapp/"
2019/08/14 08:06:28 [error] 112#112: *1 no live upstreams while connecting to upstream, client: 10.1.20.68, server: ~(?<repo>.+)\.artifactory, request: "GET /artifactory/webapp/ HTTP/1.1", upstream: "http://artifactory/artifactory/webapp/", host: "ho-srvt-uat-node01.corp.saigonbpo.vn", referrer: "http://ho-srvt-uat-node01.corp.saigonbpo.vn/artifactory/webapp/"
2019/08/14 08:06:30 [error] 112#112: *1 no live upstreams while connecting to upstream, client: 10.1.20.68, server: ~(?<repo>.+)\.artifactory, request: "GET /artifactory/webapp/ HTTP/1.1", upstream: "http://artifactory/artifactory/webapp/", host: "ho-srvt-uat-node01.corp.saigonbpo.vn", referrer: "http://ho-srvt-uat-node01.corp.saigonbpo.vn/artifactory/webapp/"
2019/08/14 08:06:32 [error] 112#112: *1 no live upstreams while connecting to upstream, client: 10.1.20.68, server: ~(?<repo>.+)\.artifactory, request: "GET /artifactory/webapp/ HTTP/1.1", upstream: "http://artifactory/artifactory/webapp/", host: "ho-srvt-uat-node01.corp.saigonbpo.vn", referrer: "http://ho-srvt-uat-node01.corp.saigonbpo.vn/artifactory/webapp/"
2019/08/14 08:06:32 [error] 112#112: *1 no live upstreams while connecting to upstream, client: 10.1.20.68, server: ~(?<repo>.+)\.artifactory, request: "GET /artifactory/webapp/ HTTP/1.1", upstream: "http://artifactory/artifactory/webapp/", host: "ho-srvt-uat-node01.corp.saigonbpo.vn", referrer: "http://ho-srvt-uat-node01.corp.saigonbpo.vn/artifactory/webapp/"
2019/08/14 08:06:36 [warn] 112#112: *1 upstream server temporarily disabled while reading response header from upstream, client: 10.1.20.68, server: ~(?<repo>.+)\.artifactory, request: "GET /artifactory/webapp/ HTTP/1.1", upstream: "http://192.168.64.3:8081/artifactory/webapp/", host: "ho-srvt-uat-node01.corp.saigonbpo.vn"
2019/08/14 08:06:36 [error] 112#112: *1 no live upstreams while connecting to upstream, client: 10.1.20.68, server: ~(?<repo>.+)\.artifactory, request: "GET /artifactory/webapp/ HTTP/1.1", upstream: "http://artifactory/artifactory/webapp/", host: "ho-srvt-uat-node01.corp.saigonbpo.vn"
2019/08/14 08:06:37 [error] 112#112: *1 no live upstreams while connecting to upstream, client: 10.1.20.68, server: ~(?<repo>.+)\.artifactory, request: "GET /artifactory/webapp/ HTTP/1.1", upstream: "http://artifactory/artifactory/webapp/", host: "ho-srvt-uat-node01.corp.saigonbpo.vn"
2019/08/14 08:06:38 [error] 112#112: *1 no live upstreams while connecting to upstream, client: 10.1.20.68, server: ~(?<repo>.+)\.artifactory, request: "GET /artifactory/webapp/ HTTP/1.1", upstream: "http://artifactory/artifactory/webapp/", host: "ho-srvt-uat-node01.corp.saigonbpo.vn"
2019/08/14 08:06:38 [error] 112#112: *1 no live upstreams while connecting to upstream, client: 10.1.20.68, server: ~(?<repo>.+)\.artifactory, request: "GET /artifactory/webapp/ HTTP/1.1", upstream: "http://artifactory/artifactory/webapp/", host: "ho-srvt-uat-node01.corp.saigonbpo.vn"
2019/08/14 08:06:38 [error] 112#112: *1 no live upstreams while connecting to upstream, client: 10.1.20.68, server: ~(?<repo>.+)\.artifactory, request: "GET /artifactory/webapp/ HTTP/1.1", upstream: "http://artifactory/artifactory/webapp/", host: "ho-srvt-uat-node01.corp.saigonbpo.vn"
2019/08/14 08:06:38 [error] 112#112: *1 no live upstreams while connecting to upstream, client: 10.1.20.68, server: ~(?<repo>.+)\.artifactory, request: "GET /artifactory/webapp/ HTTP/1.1", upstream: "http://artifactory/artifactory/webapp/", host: "ho-srvt-uat-node01.corp.saigonbpo.vn"
2019/08/14 08:06:38 [error] 112#112: *1 no live upstreams while connecting to upstream, client: 10.1.20.68, server: ~(?<repo>.+)\.artifactory, request: "GET /artifactory/webapp/ HTTP/1.1", upstream: "http://artifactory/artifactory/webapp/", host: "ho-srvt-uat-node01.corp.saigonbpo.vn"
2019/08/14 08:06:39 [warn] 112#112: *1 upstream server temporarily disabled while reading response header from upstream, client: 10.1.20.68, server: ~(?<repo>.+)\.artifactory, request: "GET /artifactory/webapp/ HTTP/1.1", upstream: "http://192.168.64.4:8081/artifactory/webapp/", host: "ho-srvt-uat-node01.corp.saigonbpo.vn"
2019/08/14 08:06:39 [error] 112#112: *1 no live upstreams while connecting to upstream, client: 10.1.20.68, server: ~(?<repo>.+)\.artifactory, request: "GET /artifactory/webapp/ HTTP/1.1", upstream: "http://artifactory/artifactory/webapp/", host: "ho-srvt-uat-node01.corp.saigonbpo.vn"
2019/08/14 09:02:20 [warn] 112#112: *21 an upstream response is buffered to a temporary file /var/lib/nginx/proxy/1/00/0000000001 while reading upstream, client: 10.1.20.68, server: ~(?<repo>.+)\.artifactory, request: "GET /artifactory/webapp/vendorScripts.2299.js HTTP/1.1", upstream: "http://192.168.64.3:8081/artifactory/webapp/vendorScripts.2299.js", host: "ho-srvt-uat-node01.corp.saigonbpo.vn", referrer: "http://ho-srvt-uat-node01.corp.saigonbpo.vn/artifactory/webapp/"
2019/08/14 09:11:16 [alert] 1#1: unlink() "/var/run/nginx.pid" failed (13: Permission denied)
